%YAML 1.1
%TAG !u! tag:unity3d.com,2011:
--- !u!74 &7400000
AnimationClip:
  m_ObjectHideFlags: 0
  m_PrefabParentObject: {fileID: 0}
  m_PrefabInternal: {fileID: 0}
  m_Name: Blade
  serializedVersion: 6
  m_Legacy: 1
  m_Compressed: 0
  m_UseHighQualityCurve: 1
  m_RotationCurves:
  - curve:
      serializedVersion: 2
      m_Curve:
      - serializedVersion: 2
        time: 0
        value: {x: -0, y: -0, z: -0, w: -1}
        inSlope: {x: 0, y: 0, z: -6.2803154, w: 0.16445874}
        outSlope: {x: 0, y: 0, z: -6.2803154, w: 0.16445874}
        tangentMode: 0
      - serializedVersion: 2
        time: 0.008333334
        value: {x: -0, y: -0, z: -0.052335963, w: -0.9986295}
        inSlope: {x: 0, y: 0, z: -6.271708, w: 0.32868502}
        outSlope: {x: 0, y: 0, z: -6.271708, w: 0.32868502}
        tangentMode: 0
      - serializedVersion: 2
        time: 0.016666668
        value: {x: -0, y: -0, z: -0.10452847, w: -0.9945219}
        inSlope: {x: 0, y: 0, z: -6.2459106, w: 0.6564688}
        outSlope: {x: 0, y: 0, z: -6.2459106, w: 0.6564688}
        tangentMode: 0
      - serializedVersion: 2
        time: 0.025000002
        value: {x: -0, y: -0, z: -0.15643449, w: -0.98768836}
        inSlope: {x: 0, y: 0, z: -6.2029943, w: 0.9824574}
        outSlope: {x: 0, y: 0, z: -6.2029943, w: 0.9824574}
        tangentMode: 0
      - serializedVersion: 2
        time: 0.033333335
        value: {x: -0, y: -0, z: -0.20791171, w: -0.9781476}
        inSlope: {x: 0, y: 0, z: -6.1430736, w: 1.3057531}
        outSlope: {x: 0, y: 0, z: -6.1430736, w: 1.3057531}
        tangentMode: 0
      - serializedVersion: 2
        time: 0.041666668
        value: {x: -0, y: -0, z: -0.25881904, w: -0.9659258}
        inSlope: {x: 0, y: 0, z: -6.0663176, w: 1.6254653}
        outSlope: {x: 0, y: 0, z: -6.0663176, w: 1.6254653}
        tangentMode: 0
      - serializedVersion: 2
        time: 0.05
        value: {x: -0, y: -0, z: -0.309017, w: -0.95105654}
        inSlope: {x: 0, y: 0, z: -5.9729347, w: 1.9407251}
        outSlope: {x: 0, y: 0, z: -5.9729347, w: 1.9407251}
        tangentMode: 0
      - serializedVersion: 2
        time: 0.058333334
        value: {x: -0, y: -0, z: -0.35836795, w: -0.9335804}
        inSlope: {x: 0, y: 0, z: -5.863179, w: 2.2506661}
        outSlope: {x: 0, y: 0, z: -5.863179, w: 2.2506661}
        tangentMode: 0
      - serializedVersion: 2
        time: 0.06666667
        value: {x: -0, y: -0, z: -0.40673667, w: -0.9135454}
        inSlope: {x: 0, y: 0, z: -5.737355, w: 2.554432}
        outSlope: {x: 0, y: 0, z: -5.737355, w: 2.554432}
        tangentMode: 0
      - serializedVersion: 2
        time: 0.075
        value: {x: -0, y: -0, z: -0.45399055, w: -0.8910065}
        inSlope: {x: 0, y: 0, z: -5.5958, w: 2.8512027}
        outSlope: {x: 0, y: 0, z: -5.5958, w: 2.8512027}
        tangentMode: 0
      - serializedVersion: 2
        time: 0.083333336
        value: {x: -0, y: -0, z: -0.5, w: -0.8660254}
        inSlope: {x: 0, y: 0, z: -5.4389105, w: 3.140159}
        outSlope: {x: 0, y: 0, z: -5.4389105, w: 3.140159}
        tangentMode: 0
      - serializedVersion: 2
        time: 0.09166667
        value: {x: -0, y: -0, z: -0.54463905, w: -0.83867055}
        inSlope: {x: 0, y: 0, z: -5.267115, w: 3.4205034}
        outSlope: {x: 0, y: 0, z: -5.267115, w: 3.4205034}
        tangentMode: 0
      - serializedVersion: 2
        time: 0.1
        value: {x: -0, y: -0, z: -0.58778524, w: -0.809017}
        inSlope: {x: 0, y: 0, z: -5.08088, w: 3.691478}
        outSlope: {x: 0, y: 0, z: -5.08088, w: 3.691478}
        tangentMode: 0
      - serializedVersion: 2
        time: 0.108333334
        value: {x: -0, y: -0, z: -0.6293204, w: -0.7771459}
        inSlope: {x: 0, y: 0, z: -4.880723, w: 3.952332}
        outSlope: {x: 0, y: 0, z: -4.880723, w: 3.952332}
        tangentMode: 0
      - serializedVersion: 2
        time: 0.11666667
        value: {x: -0, y: -0, z: -0.6691306, w: -0.7431448}
        inSlope: {x: 0, y: 0, z: -4.667184, w: 4.2023497}
        outSlope: {x: 0, y: 0, z: -4.667184, w: 4.2023497}
        tangentMode: 0
      - serializedVersion: 2
        time: 0.125
        value: {x: -0, y: -0, z: -0.70710677, w: -0.70710677}
        inSlope: {x: 0, y: 0, z: -4.440853, w: 4.440853}
        outSlope: {x: 0, y: 0, z: -4.440853, w: 4.440853}
        tangentMode: 0
      - serializedVersion: 2
        time: 0.13333334
        value: {x: -0, y: -0, z: -0.74314487, w: -0.66913056}
        inSlope: {x: 0, y: 0, z: -4.2023525, w: 4.667183}
        outSlope: {x: 0, y: 0, z: -4.2023525, w: 4.667183}
        tangentMode: 0
      - serializedVersion: 2
        time: 0.14166668
        value: {x: -0, y: -0, z: -0.77714604, w: -0.6293203}
        inSlope: {x: 0, y: 0, z: -3.9523282, w: 4.880722}
        outSlope: {x: 0, y: 0, z: -3.9523282, w: 4.880722}
        tangentMode: 0
      - serializedVersion: 2
        time: 0.15000002
        value: {x: -0, y: -0, z: -0.80901706, w: -0.5877851}
        inSlope: {x: 0, y: 0, z: -3.691475, w: 5.080883}
        outSlope: {x: 0, y: 0, z: -3.691475, w: 5.080883}
        tangentMode: 0
      - serializedVersion: 2
        time: 0.15833336
        value: {x: -0, y: -0, z: -0.8386707, w: -0.5446389}
        inSlope: {x: 0, y: 0, z: -3.420504, w: 5.2671103}
        outSlope: {x: 0, y: 0, z: -3.420504, w: 5.2671103}
        tangentMode: 0
      - serializedVersion: 2
        time: 0.1666667
        value: {x: -0, y: -0, z: -0.8660255, w: -0.49999988}
        inSlope: {x: 0, y: 0, z: -3.1401563, w: 5.4389095}
        outSlope: {x: 0, y: 0, z: -3.1401563, w: 5.4389095}
        tangentMode: 0
      - serializedVersion: 2
        time: 0.17500004
        value: {x: -0, y: -0, z: -0.89100665, w: -0.4539903}
        inSlope: {x: 0, y: 0, z: -2.8512, w: 5.595804}
        outSlope: {x: 0, y: 0, z: -2.8512, w: 5.595804}
        tangentMode: 0
      - serializedVersion: 2
        time: 0.18333338
        value: {x: -0, y: -0, z: -0.91354555, w: -0.4067364}
        inSlope: {x: 0, y: 0, z: -2.55443, w: 5.7373548}
        outSlope: {x: 0, y: 0, z: -2.55443, w: 5.7373548}
        tangentMode: 0
      - serializedVersion: 2
        time: 0.19166672
        value: {x: -0, y: -0, z: -0.9335805, w: -0.35836765}
        inSlope: {x: 0, y: 0, z: -2.2506647, w: 5.8631825}
        outSlope: {x: 0, y: 0, z: -2.2506647, w: 5.8631825}
        tangentMode: 0
      - serializedVersion: 2
        time: 0.20000006
        value: {x: -0, y: -0, z: -0.95105666, w: -0.30901662}
        inSlope: {x: 0, y: 0, z: -1.9407233, w: 5.972931}
        outSlope: {x: 0, y: 0, z: -1.9407233, w: 5.972931}
        tangentMode: 0
      - serializedVersion: 2
        time: 0.2083334
        value: {x: -0, y: -0, z: -0.96592593, w: -0.25881872}
        inSlope: {x: 0, y: 0, z: -1.6254603, w: 6.0663204}
        outSlope: {x: 0, y: 0, z: -1.6254603, w: 6.0663204}
        tangentMode: 0
      - serializedVersion: 2
        time: 0.21666674
        value: {x: -0, y: -0, z: -0.9781477, w: -0.2079112}
        inSlope: {x: 0, y: 0, z: -1.3057483, w: 6.143084}
        outSlope: {x: 0, y: 0, z: -1.3057483, w: 6.143084}
        tangentMode: 0
      - serializedVersion: 2
        time: 0.22500008
        value: {x: -0, y: -0, z: -0.9876884, w: -0.1564339}
        inSlope: {x: 0, y: 0, z: -0.98245656, w: 6.2029896}
        outSlope: {x: 0, y: 0, z: -0.98245656, w: 6.2029896}
        tangentMode: 0
      - serializedVersion: 2
        time: 0.23333342
        value: {x: -0, y: -0, z: -0.994522, w: -0.10452795}
        inSlope: {x: 0, y: 0, z: -0.65646833, w: 6.245913}
        outSlope: {x: 0, y: 0, z: -0.65646833, w: 6.245913}
        tangentMode: 0
      - serializedVersion: 2
        time: 0.24166676
        value: {x: -0, y: -0, z: -0.99862957, w: -0.05233526}
        inSlope: {x: 0, y: 0, z: -0.32868135, w: 6.2717085}
        outSlope: {x: 0, y: 0, z: -0.32868135, w: 6.2717085}
        tangentMode: 0
      - serializedVersion: 2
        time: 0.2500001
        value: {x: -0, y: -0, z: -1, w: 0.00000052054855}
        inSlope: {x: 0, y: 0, z: 0.0000035762787, w: 6.280307}
        outSlope: {x: 0, y: 0, z: 0.0000035762787, w: 6.280307}
        tangentMode: 0
      - serializedVersion: 2
        time: 0.2583334
        value: {x: -0, y: -0, z: -0.9986295, w: 0.052336417}
        inSlope: {x: 0, y: 0, z: 0.32868895, w: 6.2717066}
        outSlope: {x: 0, y: 0, z: 0.32868895, w: 6.2717066}
        tangentMode: 0
      - serializedVersion: 2
        time: 0.26666674
        value: {x: -0, y: -0, z: -0.99452186, w: 0.10452887}
        inSlope: {x: 0, y: 0, z: 0.65647304, w: 6.245909}
        outSlope: {x: 0, y: 0, z: 0.65647304, w: 6.245909}
        tangentMode: 0
      - serializedVersion: 2
        time: 0.27500007
        value: {x: -0, y: -0, z: -0.9876883, w: 0.1564348}
        inSlope: {x: 0, y: 0, z: 0.9824619, w: 6.202999}
        outSlope: {x: 0, y: 0, z: 0.9824619, w: 6.202999}
        tangentMode: 0
      - serializedVersion: 2
        time: 0.2833334
        value: {x: -0, y: -0, z: -0.9781475, w: 0.20791209}
        inSlope: {x: 0, y: 0, z: 1.3057542, w: 6.143073}
        outSlope: {x: 0, y: 0, z: 1.3057542, w: 6.143073}
        tangentMode: 0
      - serializedVersion: 2
        time: 0.29166672
        value: {x: -0, y: -0, z: -0.96592575, w: 0.25881925}
        inSlope: {x: 0, y: 0, z: 1.6254667, w: 6.0663166}
        outSlope: {x: 0, y: 0, z: 1.6254667, w: 6.0663166}
        tangentMode: 0
      - serializedVersion: 2
        time: 0.30000004
        value: {x: -0, y: -0, z: -0.9510564, w: 0.30901727}
        inSlope: {x: 0, y: 0, z: 1.9407266, w: 5.97294}
        outSlope: {x: 0, y: 0, z: 1.9407266, w: 5.97294}
        tangentMode: 0
      - serializedVersion: 2
        time: 0.30833337
        value: {x: -0, y: -0, z: -0.93358034, w: 0.35836816}
        inSlope: {x: 0, y: 0, z: 2.2506652, w: 5.863177}
        outSlope: {x: 0, y: 0, z: 2.2506652, w: 5.863177}
        tangentMode: 0
      - serializedVersion: 2
        time: 0.3166667
        value: {x: -0, y: -0, z: -0.91354537, w: 0.4067368}
        inSlope: {x: 0, y: 0, z: 2.5544348, w: 5.7373524}
        outSlope: {x: 0, y: 0, z: 2.5544348, w: 5.7373524}
        tangentMode: 0
      - serializedVersion: 2
        time: 0.32500002
        value: {x: -0, y: -0, z: -0.89100647, w: 0.4539906}
        inSlope: {x: 0, y: 0, z: 2.8512015, w: 5.5958014}
        outSlope: {x: 0, y: 0, z: 2.8512015, w: 5.5958014}
        tangentMode: 0
      - serializedVersion: 2
        time: 0.33333334
        value: {x: -0, y: -0, z: -0.8660254, w: 0.50000006}
        inSlope: {x: 0, y: 0, z: 3.1401582, w: 5.438912}
        outSlope: {x: 0, y: 0, z: 3.1401582, w: 5.438912}
        tangentMode: 0
      - serializedVersion: 2
        time: 0.34166667
        value: {x: -0, y: -0, z: -0.83867055, w: 0.54463905}
        inSlope: {x: 0, y: 0, z: 3.4205065, w: 5.2671127}
        outSlope: {x: 0, y: 0, z: 3.4205065, w: 5.2671127}
        tangentMode: 0
      - serializedVersion: 2
        time: 0.35
        value: {x: -0, y: -0, z: -0.809017, w: 0.5877852}
        inSlope: {x: 0, y: 0, z: 3.691474, w: 5.080881}
        outSlope: {x: 0, y: 0, z: 3.691474, w: 5.080881}
        tangentMode: 0
      - serializedVersion: 2
        time: 0.35833332
        value: {x: -0, y: -0, z: -0.77714604, w: 0.6293203}
        inSlope: {x: 0, y: 0, z: 3.9523282, w: 4.880724}
        outSlope: {x: 0, y: 0, z: 3.9523282, w: 4.880724}
        tangentMode: 0
      - serializedVersion: 2
        time: 0.36666664
        value: {x: -0, y: -0, z: -0.7431449, w: 0.6691305}
        inSlope: {x: 0, y: 0, z: 4.2023497, w: 4.6671805}
        outSlope: {x: 0, y: 0, z: 4.2023497, w: 4.6671805}
        tangentMode: 0
      - serializedVersion: 2
        time: 0.37499997
        value: {x: -0, y: -0, z: -0.70710695, w: 0.7071066}
        inSlope: {x: 0, y: 0, z: 4.440852, w: 4.440852}
        outSlope: {x: 0, y: 0, z: 4.440852, w: 4.440852}
        tangentMode: 0
      - serializedVersion: 2
        time: 0.3833333
        value: {x: -0, y: -0, z: -0.6691308, w: 0.74314463}
        inSlope: {x: 0, y: 0, z: 4.6671805, w: 4.2023535}
        outSlope: {x: 0, y: 0, z: 4.6671805, w: 4.2023535}
        tangentMode: 0
      - serializedVersion: 2
        time: 0.39166662
        value: {x: -0, y: -0, z: -0.6293207, w: 0.77714574}
        inSlope: {x: 0, y: 0, z: 4.880731, w: 3.9523387}
        outSlope: {x: 0, y: 0, z: 4.880731, w: 3.9523387}
        tangentMode: 0
      - serializedVersion: 2
        time: 0.39999995
        value: {x: -0, y: -0, z: -0.58778536, w: 0.8090169}
        inSlope: {x: 0, y: 0, z: 5.0808916, w: 3.691485}
        outSlope: {x: 0, y: 0, z: 5.0808916, w: 3.691485}
        tangentMode: 0
      - serializedVersion: 2
        time: 0.40833327
        value: {x: -0, y: -0, z: -0.5446392, w: 0.83867043}
        inSlope: {x: 0, y: 0, z: 5.2670984, w: 3.4204993}
        outSlope: {x: 0, y: 0, z: 5.2670984, w: 3.4204993}
        tangentMode: 0
      - serializedVersion: 2
        time: 0.4166666
        value: {x: -0, y: -0, z: -0.5000005, w: 0.86602515}
        inSlope: {x: 0, y: 0, z: 5.4388976, w: 3.140151}
        outSlope: {x: 0, y: 0, z: 5.4388976, w: 3.140151}
        tangentMode: 0
      - serializedVersion: 2
        time: 0.42499992
        value: {x: -0, y: -0, z: -0.45399103, w: 0.89100623}
        inSlope: {x: 0, y: 0, z: 5.5957994, w: 2.8512053}
        outSlope: {x: 0, y: 0, z: 5.5957994, w: 2.8512053}
        tangentMode: 0
      - serializedVersion: 2
        time: 0.43333325
        value: {x: -0, y: -0, z: -0.40673724, w: 0.9135452}
        inSlope: {x: 0, y: 0, z: 5.737365, w: 2.5544453}
        outSlope: {x: 0, y: 0, z: 5.737365, w: 2.5544453}
        tangentMode: 0
      - serializedVersion: 2
        time: 0.44166657
        value: {x: -0, y: -0, z: -0.35836837, w: 0.9335803}
        inSlope: {x: 0, y: 0, z: 5.863191, w: 2.2506723}
        outSlope: {x: 0, y: 0, z: 5.863191, w: 2.2506723}
        tangentMode: 0
      - serializedVersion: 2
        time: 0.4499999
        value: {x: -0, y: -0, z: -0.30901748, w: 0.95105636}
        inSlope: {x: 0, y: 0, z: 5.9729185, w: 1.9407231}
        outSlope: {x: 0, y: 0, z: 5.9729185, w: 1.9407231}
        tangentMode: 0
      - serializedVersion: 2
        time: 0.45833322
        value: {x: -0, y: -0, z: -0.25881982, w: 0.96592563}
        inSlope: {x: 0, y: 0, z: 6.0663013, w: 1.6254667}
        outSlope: {x: 0, y: 0, z: 6.0663013, w: 1.6254667}
        tangentMode: 0
      - serializedVersion: 2
        time: 0.46666655
        value: {x: -0, y: -0, z: -0.20791255, w: 0.97814745}
        inSlope: {x: 0, y: 0, z: 6.143072, w: 1.3057542}
        outSlope: {x: 0, y: 0, z: 6.143072, w: 1.3057542}
        tangentMode: 0
      - serializedVersion: 2
        time: 0.47499987
        value: {x: -0, y: -0, z: -0.15643539, w: 0.9876882}
        inSlope: {x: 0, y: 0, z: 6.2030063, w: 0.9824619}
        outSlope: {x: 0, y: 0, z: 6.2030063, w: 0.9824619}
        tangentMode: 0
      - serializedVersion: 2
        time: 0.4833332
        value: {x: -0, y: -0, z: -0.10452921, w: 0.9945218}
        inSlope: {x: 0, y: 0, z: 6.245923, w: 0.6564802}
        outSlope: {x: 0, y: 0, z: 6.245923, w: 0.6564802}
        tangentMode: 0
      - serializedVersion: 2
        time: 0.49166653
        value: {x: -0, y: -0, z: -0.052336764, w: 0.9986295}
        inSlope: {x: 0, y: 0, z: 6.2717075, w: 0.32869104}
        outSlope: {x: 0, y: 0, z: 6.2717075, w: 0.32869104}
        tangentMode: 0
      - serializedVersion: 2
        time: 0.5
        value: {x: -0, y: -0, z: 0.00000008742278, w: 1}
        inSlope: {x: 0, y: 0, z: 6.2803154, w: 0.16445597}
        outSlope: {x: 0, y: 0, z: 6.2803154, w: 0.16445597}
        tangentMode: 0
      m_PreInfinity: 2
      m_PostInfinity: 2
      m_RotationOrder: 4
    path: 
  m_CompressedRotationCurves: []
  m_EulerCurves: []
  m_PositionCurves: []
  m_ScaleCurves: []
  m_FloatCurves: []
  m_PPtrCurves: []
  m_SampleRate: 120
  m_WrapMode: 2
  m_Bounds:
    m_Center: {x: 0, y: 0, z: 0}
    m_Extent: {x: 0, y: 0, z: 0}
  m_ClipBindingConstant:
    genericBindings: []
    pptrCurveMapping: []
  m_AnimationClipSettings:
    serializedVersion: 2
    m_AdditiveReferencePoseClip: {fileID: 0}
    m_AdditiveReferencePoseTime: 0
    m_StartTime: 0
    m_StopTime: 0.5
    m_OrientationOffsetY: 0
    m_Level: 0
    m_CycleOffset: 0
    m_HasAdditiveReferencePose: 0
    m_LoopTime: 0
    m_LoopBlend: 0
    m_LoopBlendOrientation: 0
    m_LoopBlendPositionY: 0
    m_LoopBlendPositionXZ: 0
    m_KeepOriginalOrientation: 0
    m_KeepOriginalPositionY: 1
    m_KeepOriginalPositionXZ: 0
    m_HeightFromFeet: 0
    m_Mirror: 0
  m_EditorCurves:
  - curve:
      serializedVersion: 2
      m_Curve:
      - serializedVersion: 2
        time: 0
        value: -0
        inSlope: 0
        outSlope: 0
        tangentMode: 0
      - serializedVersion: 2
        time: 0.008333334
        value: -0
        inSlope: 0
        outSlope: 0
        tangentMode: 0
      - serializedVersion: 2
        time: 0.016666668
        value: -0
        inSlope: 0
        outSlope: 0
        tangentMode: 0
      - serializedVersion: 2
        time: 0.025000002
        value: -0
        inSlope: 0
        outSlope: 0
        tangentMode: 0
      - serializedVersion: 2
        time: 0.033333335
        value: -0
        inSlope: 0
        outSlope: 0
        tangentMode: 0
      - serializedVersion: 2
        time: 0.041666668
        value: -0
        inSlope: 0
        outSlope: 0
        tangentMode: 0
      - serializedVersion: 2
        time: 0.05
        value: -0
        inSlope: 0
        outSlope: 0
        tangentMode: 0
      - serializedVersion: 2
        time: 0.058333334
        value: -0
        inSlope: 0
        outSlope: 0
        tangentMode: 0
      - serializedVersion: 2
        time: 0.06666667
        value: -0
        inSlope: 0
        outSlope: 0
        tangentMode: 0
      - serializedVersion: 2
        time: 0.075
        value: -0
        inSlope: 0
        outSlope: 0
        tangentMode: 0
      - serializedVersion: 2
        time: 0.083333336
        value: -0
        inSlope: 0
        outSlope: 0
        tangentMode: 0
      - serializedVersion: 2
        time: 0.09166667
        value: -0
        inSlope: 0
        outSlope: 0
        tangentMode: 0
      - serializedVersion: 2
        time: 0.1
        value: -0
        inSlope: 0
        outSlope: 0
        tangentMode: 0
      - serializedVersion: 2
        time: 0.108333334
        value: -0
        inSlope: 0
        outSlope: 0
        tangentMode: 0
      - serializedVersion: 2
        time: 0.11666667
        value: -0
        inSlope: 0
        outSlope: 0
        tangentMode: 0
      - serializedVersion: 2
        time: 0.125
        value: -0
        inSlope: 0
        outSlope: 0
        tangentMode: 0
      - serializedVersion: 2
        time: 0.13333334
        value: -0
        inSlope: 0
        outSlope: 0
        tangentMode: 0
      - serializedVersion: 2
        time: 0.14166668
        value: -0
        inSlope: 0
        outSlope: 0
        tangentMode: 0
      - serializedVersion: 2
        time: 0.15000002
        value: -0
        inSlope: 0
        outSlope: 0
        tangentMode: 0
      - serializedVersion: 2
        time: 0.15833336
        value: -0
        inSlope: 0
        outSlope: 0
        tangentMode: 0
      - serializedVersion: 2
        time: 0.1666667
        value: -0
        inSlope: 0
        outSlope: 0
        tangentMode: 0
      - serializedVersion: 2
        time: 0.17500004
        value: -0
        inSlope: 0
        outSlope: 0
        tangentMode: 0
      - serializedVersion: 2
        time: 0.18333338
        value: -0
        inSlope: 0
        outSlope: 0
        tangentMode: 0
      - serializedVersion: 2
        time: 0.19166672
        value: -0
        inSlope: 0
        outSlope: 0
        tangentMode: 0
      - serializedVersion: 2
        time: 0.20000006
        value: -0
        inSlope: 0
        outSlope: 0
        tangentMode: 0
      - serializedVersion: 2
        time: 0.2083334
        value: -0
        inSlope: 0
        outSlope: 0
        tangentMode: 0
      - serializedVersion: 2
        time: 0.21666674
        value: -0
        inSlope: 0
        outSlope: 0
        tangentMode: 0
      - serializedVersion: 2
        time: 0.22500008
        value: -0
        inSlope: 0
        outSlope: 0
        tangentMode: 0
      - serializedVersion: 2
        time: 0.23333342
        value: -0
        inSlope: 0
        outSlope: 0
        tangentMode: 0
      - serializedVersion: 2
        time: 0.24166676
        value: -0
        inSlope: 0
        outSlope: 0
        tangentMode: 0
      - serializedVersion: 2
        time: 0.2500001
        value: -0
        inSlope: 0
        outSlope: 0
        tangentMode: 0
      - serializedVersion: 2
        time: 0.2583334
        value: -0
        inSlope: 0
        outSlope: 0
        tangentMode: 0
      - serializedVersion: 2
        time: 0.26666674
        value: -0
        inSlope: 0
        outSlope: 0
        tangentMode: 0
      - serializedVersion: 2
        time: 0.27500007
        value: -0
        inSlope: 0
        outSlope: 0
        tangentMode: 0
      - serializedVersion: 2
        time: 0.2833334
        value: -0
        inSlope: 0
        outSlope: 0
        tangentMode: 0
      - serializedVersion: 2
        time: 0.29166672
        value: -0
        inSlope: 0
        outSlope: 0
        tangentMode: 0
      - serializedVersion: 2
        time: 0.30000004
        value: -0
        inSlope: 0
        outSlope: 0
        tangentMode: 0
      - serializedVersion: 2
        time: 0.30833337
        value: -0
        inSlope: 0
        outSlope: 0
        tangentMode: 0
      - serializedVersion: 2
        time: 0.3166667
        value: -0
        inSlope: 0
        outSlope: 0
        tangentMode: 0
      - serializedVersion: 2
        time: 0.32500002
        value: -0
        inSlope: 0
        outSlope: 0
        tangentMode: 0
      - serializedVersion: 2
        time: 0.33333334
        value: -0
        inSlope: 0
        outSlope: 0
        tangentMode: 0
      - serializedVersion: 2
        time: 0.34166667
        value: -0
        inSlope: 0
        outSlope: 0
        tangentMode: 0
      - serializedVersion: 2
        time: 0.35
        value: -0
        inSlope: 0
        outSlope: 0
        tangentMode: 0
      - serializedVersion: 2
        time: 0.35833332
        value: -0
        inSlope: 0
        outSlope: 0
        tangentMode: 0
      - serializedVersion: 2
        time: 0.36666664
        value: -0
        inSlope: 0
        outSlope: 0
        tangentMode: 0
      - serializedVersion: 2
        time: 0.37499997
        value: -0
        inSlope: 0
        outSlope: 0
        tangentMode: 0
      - serializedVersion: 2
        time: 0.3833333
        value: -0
        inSlope: 0
        outSlope: 0
        tangentMode: 0
      - serializedVersion: 2
        time: 0.39166662
        value: -0
        inSlope: 0
        outSlope: 0
        tangentMode: 0
      - serializedVersion: 2
        time: 0.39999995
        value: -0
        inSlope: 0
        outSlope: 0
        tangentMode: 0
      - serializedVersion: 2
        time: 0.40833327
        value: -0
        inSlope: 0
        outSlope: 0
        tangentMode: 0
      - serializedVersion: 2
        time: 0.4166666
        value: -0
        inSlope: 0
        outSlope: 0
        tangentMode: 0
      - serializedVersion: 2
        time: 0.42499992
        value: -0
        inSlope: 0
        outSlope: 0
        tangentMode: 0
      - serializedVersion: 2
        time: 0.43333325
        value: -0
        inSlope: 0
        outSlope: 0
        tangentMode: 0
      - serializedVersion: 2
        time: 0.44166657
        value: -0
        inSlope: 0
        outSlope: 0
        tangentMode: 0
      - serializedVersion: 2
        time: 0.4499999
        value: -0
        inSlope: 0
        outSlope: 0
        tangentMode: 0
      - serializedVersion: 2
        time: 0.45833322
        value: -0
        inSlope: 0
        outSlope: 0
        tangentMode: 0
      - serializedVersion: 2
        time: 0.46666655
        value: -0
        inSlope: 0
        outSlope: 0
        tangentMode: 0
      - serializedVersion: 2
        time: 0.47499987
        value: -0
        inSlope: 0
        outSlope: 0
        tangentMode: 0
      - serializedVersion: 2
        time: 0.4833332
        value: -0
        inSlope: 0
        outSlope: 0
        tangentMode: 0
      - serializedVersion: 2
        time: 0.49166653
        value: -0
        inSlope: 0
        outSlope: 0
        tangentMode: 0
      - serializedVersion: 2
        time: 0.5
        value: -0
        inSlope: 0
        outSlope: 0
        tangentMode: 0
      m_PreInfinity: 2
      m_PostInfinity: 2
      m_RotationOrder: 4
    attribute: m_LocalRotation.x
    path: 
    classID: 224
    script: {fileID: 0}
  - curve:
      serializedVersion: 2
      m_Curve:
      - serializedVersion: 2
        time: 0
        value: -0
        inSlope: 0
        outSlope: 0
        tangentMode: 0
      - serializedVersion: 2
        time: 0.008333334
        value: -0
        inSlope: 0
        outSlope: 0
        tangentMode: 0
      - serializedVersion: 2
        time: 0.016666668
        value: -0
        inSlope: 0
        outSlope: 0
        tangentMode: 0
      - serializedVersion: 2
        time: 0.025000002
        value: -0
        inSlope: 0
        outSlope: 0
        tangentMode: 0
      - serializedVersion: 2
        time: 0.033333335
        value: -0
        inSlope: 0
        outSlope: 0
        tangentMode: 0
      - serializedVersion: 2
        time: 0.041666668
        value: -0
        inSlope: 0
        outSlope: 0
        tangentMode: 0
      - serializedVersion: 2
        time: 0.05
        value: -0
        inSlope: 0
        outSlope: 0
        tangentMode: 0
      - serializedVersion: 2
        time: 0.058333334
        value: -0
        inSlope: 0
        outSlope: 0
        tangentMode: 0
      - serializedVersion: 2
        time: 0.06666667
        value: -0
        inSlope: 0
        outSlope: 0
        tangentMode: 0
      - serializedVersion: 2
        time: 0.075
        value: -0
        inSlope: 0
        outSlope: 0
        tangentMode: 0
      - serializedVersion: 2
        time: 0.083333336
        value: -0
        inSlope: 0
        outSlope: 0
        tangentMode: 0
      - serializedVersion: 2
        time: 0.09166667
        value: -0
        inSlope: 0
        outSlope: 0
        tangentMode: 0
      - serializedVersion: 2
        time: 0.1
        value: -0
        inSlope: 0
        outSlope: 0
        tangentMode: 0
      - serializedVersion: 2
        time: 0.108333334
        value: -0
        inSlope: 0
        outSlope: 0
        tangentMode: 0
      - serializedVersion: 2
        time: 0.11666667
        value: -0
        inSlope: 0
        outSlope: 0
        tangentMode: 0
      - serializedVersion: 2
        time: 0.125
        value: -0
        inSlope: 0
        outSlope: 0
        tangentMode: 0
      - serializedVersion: 2
        time: 0.13333334
        value: -0
        inSlope: 0
        outSlope: 0
        tangentMode: 0
      - serializedVersion: 2
        time: 0.14166668
        value: -0
        inSlope: 0
        outSlope: 0
        tangentMode: 0
      - serializedVersion: 2
        time: 0.15000002
        value: -0
        inSlope: 0
        outSlope: 0
        tangentMode: 0
      - serializedVersion: 2
        time: 0.15833336
        value: -0
        inSlope: 0
        outSlope: 0
        tangentMode: 0
      - serializedVersion: 2
        time: 0.1666667
        value: -0
        inSlope: 0
        outSlope: 0
        tangentMode: 0
      - serializedVersion: 2
        time: 0.17500004
        value: -0
        inSlope: 0
        outSlope: 0
        tangentMode: 0
      - serializedVersion: 2
        time: 0.18333338
        value: -0
        inSlope: 0
        outSlope: 0
        tangentMode: 0
      - serializedVersion: 2
        time: 0.19166672
        value: -0
        inSlope: 0
        outSlope: 0
        tangentMode: 0
      - serializedVersion: 2
        time: 0.20000006
        value: -0
        inSlope: 0
        outSlope: 0
        tangentMode: 0
      - serializedVersion: 2
        time: 0.2083334
        value: -0
        inSlope: 0
        outSlope: 0
        tangentMode: 0
      - serializedVersion: 2
        time: 0.21666674
        value: -0
        inSlope: 0
        outSlope: 0
        tangentMode: 0
      - serializedVersion: 2
        time: 0.22500008
        value: -0
        inSlope: 0
        outSlope: 0
        tangentMode: 0
      - serializedVersion: 2
        time: 0.23333342
        value: -0
        inSlope: 0
        outSlope: 0
        tangentMode: 0
      - serializedVersion: 2
        time: 0.24166676
        value: -0
        inSlope: 0
        outSlope: 0
        tangentMode: 0
      - serializedVersion: 2
        time: 0.2500001
        value: -0
        inSlope: 0
        outSlope: 0
        tangentMode: 0
      - serializedVersion: 2
        time: 0.2583334
        value: -0
        inSlope: 0
        outSlope: 0
        tangentMode: 0
      - serializedVersion: 2
        time: 0.26666674
        value: -0
        inSlope: 0
        outSlope: 0
        tangentMode: 0
      - serializedVersion: 2
        time: 0.27500007
        value: -0
        inSlope: 0
        outSlope: 0
        tangentMode: 0
      - serializedVersion: 2
        time: 0.2833334
        value: -0
        inSlope: 0
        outSlope: 0
        tangentMode: 0
      - serializedVersion: 2
        time: 0.29166672
        value: -0
        inSlope: 0
        outSlope: 0
        tangentMode: 0
      - serializedVersion: 2
        time: 0.30000004
        value: -0
        inSlope: 0
        outSlope: 0
        tangentMode: 0
      - serializedVersion: 2
        time: 0.30833337
        value: -0
        inSlope: 0
        outSlope: 0
        tangentMode: 0
      - serializedVersion: 2
        time: 0.3166667
        value: -0
        inSlope: 0
        outSlope: 0
        tangentMode: 0
      - serializedVersion: 2
        time: 0.32500002
        value: -0
        inSlope: 0
        outSlope: 0
        tangentMode: 0
      - serializedVersion: 2
        time: 0.33333334
        value: -0
        inSlope: 0
        outSlope: 0
        tangentMode: 0
      - serializedVersion: 2
        time: 0.34166667
        value: -0
        inSlope: 0
        outSlope: 0
        tangentMode: 0
      - serializedVersion: 2
        time: 0.35
        value: -0
        inSlope: 0
        outSlope: 0
        tangentMode: 0
      - serializedVersion: 2
        time: 0.35833332
        value: -0
        inSlope: 0
        outSlope: 0
        tangentMode: 0
      - serializedVersion: 2
        time: 0.36666664
        value: -0
        inSlope: 0
        outSlope: 0
        tangentMode: 0
      - serializedVersion: 2
        time: 0.37499997
        value: -0
        inSlope: 0
        outSlope: 0
        tangentMode: 0
      - serializedVersion: 2
        time: 0.3833333
        value: -0
        inSlope: 0
        outSlope: 0
        tangentMode: 0
      - serializedVersion: 2
        time: 0.39166662
        value: -0
        inSlope: 0
        outSlope: 0
        tangentMode: 0
      - serializedVersion: 2
        time: 0.39999995
        value: -0
        inSlope: 0
        outSlope: 0
        tangentMode: 0
      - serializedVersion: 2
        time: 0.40833327
        value: -0
        inSlope: 0
        outSlope: 0
        tangentMode: 0
      - serializedVersion: 2
        time: 0.4166666
        value: -0
        inSlope: 0
        outSlope: 0
        tangentMode: 0
      - serializedVersion: 2
        time: 0.42499992
        value: -0
        inSlope: 0
        outSlope: 0
        tangentMode: 0
      - serializedVersion: 2
        time: 0.43333325
        value: -0
        inSlope: 0
        outSlope: 0
        tangentMode: 0
      - serializedVersion: 2
        time: 0.44166657
        value: -0
        inSlope: 0
        outSlope: 0
        tangentMode: 0
      - serializedVersion: 2
        time: 0.4499999
        value: -0
        inSlope: 0
        outSlope: 0
        tangentMode: 0
      - serializedVersion: 2
        time: 0.45833322
        value: -0
        inSlope: 0
        outSlope: 0
        tangentMode: 0
      - serializedVersion: 2
        time: 0.46666655
        value: -0
        inSlope: 0
        outSlope: 0
        tangentMode: 0
      - serializedVersion: 2
        time: 0.47499987
        value: -0
        inSlope: 0
        outSlope: 0
        tangentMode: 0
      - serializedVersion: 2
        time: 0.4833332
        value: -0
        inSlope: 0
        outSlope: 0
        tangentMode: 0
      - serializedVersion: 2
        time: 0.49166653
        value: -0
        inSlope: 0
        outSlope: 0
        tangentMode: 0
      - serializedVersion: 2
        time: 0.5
        value: -0
        inSlope: 0
        outSlope: 0
        tangentMode: 0
      m_PreInfinity: 2
      m_PostInfinity: 2
      m_RotationOrder: 4
    attribute: m_LocalRotation.y
    path: 
    classID: 224
    script: {fileID: 0}
  - curve:
      serializedVersion: 2
      m_Curve:
      - serializedVersion: 2
        time: 0
        value: -0
        inSlope: -6.2803154
        outSlope: -6.2803154
        tangentMode: 0
      - serializedVersion: 2
        time: 0.008333334
        value: -0.052335963
        inSlope: -6.271708
        outSlope: -6.271708
        tangentMode: 0
      - serializedVersion: 2
        time: 0.016666668
        value: -0.10452847
        inSlope: -6.2459106
        outSlope: -6.2459106
        tangentMode: 0
      - serializedVersion: 2
        time: 0.025000002
        value: -0.15643449
        inSlope: -6.2029943
        outSlope: -6.2029943
        tangentMode: 0
      - serializedVersion: 2
        time: 0.033333335
        value: -0.20791171
        inSlope: -6.1430736
        outSlope: -6.1430736
        tangentMode: 0
      - serializedVersion: 2
        time: 0.041666668
        value: -0.25881904
        inSlope: -6.0663176
        outSlope: -6.0663176
        tangentMode: 0
      - serializedVersion: 2
        time: 0.05
        value: -0.309017
        inSlope: -5.9729347
        outSlope: -5.9729347
        tangentMode: 0
      - serializedVersion: 2
        time: 0.058333334
        value: -0.35836795
        inSlope: -5.863179
        outSlope: -5.863179
        tangentMode: 0
      - serializedVersion: 2
        time: 0.06666667
        value: -0.40673667
        inSlope: -5.737355
        outSlope: -5.737355
        tangentMode: 0
      - serializedVersion: 2
        time: 0.075
        value: -0.45399055
        inSlope: -5.5958
        outSlope: -5.5958
        tangentMode: 0
      - serializedVersion: 2
        time: 0.083333336
        value: -0.5
        inSlope: -5.4389105
        outSlope: -5.4389105
        tangentMode: 0
      - serializedVersion: 2
        time: 0.09166667
        value: -0.54463905
        inSlope: -5.267115
        outSlope: -5.267115
        tangentMode: 0
      - serializedVersion: 2
        time: 0.1
        value: -0.58778524
        inSlope: -5.08088
        outSlope: -5.08088
        tangentMode: 0
      - serializedVersion: 2
        time: 0.108333334
        value: -0.6293204
        inSlope: -4.880723
        outSlope: -4.880723
        tangentMode: 0
      - serializedVersion: 2
        time: 0.11666667
        value: -0.6691306
        inSlope: -4.667184
        outSlope: -4.667184
        tangentMode: 0
      - serializedVersion: 2
        time: 0.125
        value: -0.70710677
        inSlope: -4.440853
        outSlope: -4.440853
        tangentMode: 0
      - serializedVersion: 2
        time: 0.13333334
        value: -0.74314487
        inSlope: -4.2023525
        outSlope: -4.2023525
        tangentMode: 0
      - serializedVersion: 2
        time: 0.14166668
        value: -0.77714604
        inSlope: -3.9523282
        outSlope: -3.9523282
        tangentMode: 0
      - serializedVersion: 2
        time: 0.15000002
        value: -0.80901706
        inSlope: -3.691475
        outSlope: -3.691475
        tangentMode: 0
      - serializedVersion: 2
        time: 0.15833336
        value: -0.8386707
        inSlope: -3.420504
        outSlope: -3.420504
        tangentMode: 0
      - serializedVersion: 2
        time: 0.1666667
        value: -0.8660255
        inSlope: -3.1401563
        outSlope: -3.1401563
        tangentMode: 0
      - serializedVersion: 2
        time: 0.17500004
        value: -0.89100665
        inSlope: -2.8512
        outSlope: -2.8512
        tangentMode: 0
      - serializedVersion: 2
        time: 0.18333338
        value: -0.91354555
        inSlope: -2.55443
        outSlope: -2.55443
        tangentMode: 0
      - serializedVersion: 2
        time: 0.19166672
        value: -0.9335805
        inSlope: -2.2506647
        outSlope: -2.2506647
        tangentMode: 0
      - serializedVersion: 2
        time: 0.20000006
        value: -0.95105666
        inSlope: -1.9407233
        outSlope: -1.9407233
        tangentMode: 0
      - serializedVersion: 2
        time: 0.2083334
        value: -0.96592593
        inSlope: -1.6254603
        outSlope: -1.6254603
        tangentMode: 0
      - serializedVersion: 2
        time: 0.21666674
        value: -0.9781477
        inSlope: -1.3057483
        outSlope: -1.3057483
        tangentMode: 0
      - serializedVersion: 2
        time: 0.22500008
        value: -0.9876884
        inSlope: -0.98245656
        outSlope: -0.98245656
        tangentMode: 0
      - serializedVersion: 2
        time: 0.23333342
        value: -0.994522
        inSlope: -0.65646833
        outSlope: -0.65646833
        tangentMode: 0
      - serializedVersion: 2
        time: 0.24166676
        value: -0.99862957
        inSlope: -0.32868135
        outSlope: -0.32868135
        tangentMode: 0
      - serializedVersion: 2
        time: 0.2500001
        value: -1
        inSlope: 0.0000035762787
        outSlope: 0.0000035762787
        tangentMode: 0
      - serializedVersion: 2
        time: 0.2583334
        value: -0.9986295
        inSlope: 0.32868895
        outSlope: 0.32868895
        tangentMode: 0
      - serializedVersion: 2
        time: 0.26666674
        value: -0.99452186
        inSlope: 0.65647304
        outSlope: 0.65647304
        tangentMode: 0
      - serializedVersion: 2
        time: 0.27500007
        value: -0.9876883
        inSlope: 0.9824619
        outSlope: 0.9824619
        tangentMode: 0
      - serializedVersion: 2
        time: 0.2833334
        value: -0.9781475
        inSlope: 1.3057542
        outSlope: 1.3057542
        tangentMode: 0
      - serializedVersion: 2
        time: 0.29166672
        value: -0.96592575
        inSlope: 1.6254667
        outSlope: 1.6254667
        tangentMode: 0
      - serializedVersion: 2
        time: 0.30000004
        value: -0.9510564
        inSlope: 1.9407266
        outSlope: 1.9407266
        tangentMode: 0
      - serializedVersion: 2
        time: 0.30833337
        value: -0.93358034
        inSlope: 2.2506652
        outSlope: 2.2506652
        tangentMode: 0
      - serializedVersion: 2
        time: 0.3166667
        value: -0.91354537
        inSlope: 2.5544348
        outSlope: 2.5544348
        tangentMode: 0
      - serializedVersion: 2
        time: 0.32500002
        value: -0.89100647
        inSlope: 2.8512015
        outSlope: 2.8512015
        tangentMode: 0
      - serializedVersion: 2
        time: 0.33333334
        value: -0.8660254
        inSlope: 3.1401582
        outSlope: 3.1401582
        tangentMode: 0
      - serializedVersion: 2
        time: 0.34166667
        value: -0.83867055
        inSlope: 3.4205065
        outSlope: 3.4205065
        tangentMode: 0
      - serializedVersion: 2
        time: 0.35
        value: -0.809017
        inSlope: 3.691474
        outSlope: 3.691474
        tangentMode: 0
      - serializedVersion: 2
        time: 0.35833332
        value: -0.77714604
        inSlope: 3.9523282
        outSlope: 3.9523282
        tangentMode: 0
      - serializedVersion: 2
        time: 0.36666664
        value: -0.7431449
        inSlope: 4.2023497
        outSlope: 4.2023497
        tangentMode: 0
      - serializedVersion: 2
        time: 0.37499997
        value: -0.70710695
        inSlope: 4.440852
        outSlope: 4.440852
        tangentMode: 0
      - serializedVersion: 2
        time: 0.3833333
        value: -0.6691308
        inSlope: 4.6671805
        outSlope: 4.6671805
        tangentMode: 0
      - serializedVersion: 2
        time: 0.39166662
        value: -0.6293207
        inSlope: 4.880731
        outSlope: 4.880731
        tangentMode: 0
      - serializedVersion: 2
        time: 0.39999995
        value: -0.58778536
        inSlope: 5.0808916
        outSlope: 5.0808916
        tangentMode: 0
      - serializedVersion: 2
        time: 0.40833327
        value: -0.5446392
        inSlope: 5.2670984
        outSlope: 5.2670984
        tangentMode: 0
      - serializedVersion: 2
        time: 0.4166666
        value: -0.5000005
        inSlope: 5.4388976
        outSlope: 5.4388976
        tangentMode: 0
      - serializedVersion: 2
        time: 0.42499992
        value: -0.45399103
        inSlope: 5.5957994
        outSlope: 5.5957994
        tangentMode: 0
      - serializedVersion: 2
        time: 0.43333325
        value: -0.40673724
        inSlope: 5.737365
        outSlope: 5.737365
        tangentMode: 0
      - serializedVersion: 2
        time: 0.44166657
        value: -0.35836837
        inSlope: 5.863191
        outSlope: 5.863191
        tangentMode: 0
      - serializedVersion: 2
        time: 0.4499999
        value: -0.30901748
        inSlope: 5.9729185
        outSlope: 5.9729185
        tangentMode: 0
      - serializedVersion: 2
        time: 0.45833322
        value: -0.25881982
        inSlope: 6.0663013
        outSlope: 6.0663013
        tangentMode: 0
      - serializedVersion: 2
        time: 0.46666655
        value: -0.20791255
        inSlope: 6.143072
        outSlope: 6.143072
        tangentMode: 0
      - serializedVersion: 2
        time: 0.47499987
        value: -0.15643539
        inSlope: 6.2030063
        outSlope: 6.2030063
        tangentMode: 0
      - serializedVersion: 2
        time: 0.4833332
        value: -0.10452921
        inSlope: 6.245923
        outSlope: 6.245923
        tangentMode: 0
      - serializedVersion: 2
        time: 0.49166653
        value: -0.052336764
        inSlope: 6.2717075
        outSlope: 6.2717075
        tangentMode: 0
      - serializedVersion: 2
        time: 0.5
        value: 0.00000008742278
        inSlope: 6.2803154
        outSlope: 6.2803154
        tangentMode: 0
      m_PreInfinity: 2
      m_PostInfinity: 2
      m_RotationOrder: 4
    attribute: m_LocalRotation.z
    path: 
    classID: 224
    script: {fileID: 0}
  - curve:
      serializedVersion: 2
      m_Curve:
      - serializedVersion: 2
        time: 0
        value: -1
        inSlope: 0.16445874
        outSlope: 0.16445874
        tangentMode: 0
      - serializedVersion: 2
        time: 0.008333334
        value: -0.9986295
        inSlope: 0.32868502
        outSlope: 0.32868502
        tangentMode: 0
      - serializedVersion: 2
        time: 0.016666668
        value: -0.9945219
        inSlope: 0.6564688
        outSlope: 0.6564688
        tangentMode: 0
      - serializedVersion: 2
        time: 0.025000002
        value: -0.98768836
        inSlope: 0.9824574
        outSlope: 0.9824574
        tangentMode: 0
      - serializedVersion: 2
        time: 0.033333335
        value: -0.9781476
        inSlope: 1.3057531
        outSlope: 1.3057531
        tangentMode: 0
      - serializedVersion: 2
        time: 0.041666668
        value: -0.9659258
        inSlope: 1.6254653
        outSlope: 1.6254653
        tangentMode: 0
      - serializedVersion: 2
        time: 0.05
        value: -0.95105654
        inSlope: 1.9407251
        outSlope: 1.9407251
        tangentMode: 0
      - serializedVersion: 2
        time: 0.058333334
        value: -0.9335804
        inSlope: 2.2506661
        outSlope: 2.2506661
        tangentMode: 0
      - serializedVersion: 2
        time: 0.06666667
        value: -0.9135454
        inSlope: 2.554432
        outSlope: 2.554432
        tangentMode: 0
      - serializedVersion: 2
        time: 0.075
        value: -0.8910065
        inSlope: 2.8512027
        outSlope: 2.8512027
        tangentMode: 0
      - serializedVersion: 2
        time: 0.083333336
        value: -0.8660254
        inSlope: 3.140159
        outSlope: 3.140159
        tangentMode: 0
      - serializedVersion: 2
        time: 0.09166667
        value: -0.83867055
        inSlope: 3.4205034
        outSlope: 3.4205034
        tangentMode: 0
      - serializedVersion: 2
        time: 0.1
        value: -0.809017
        inSlope: 3.691478
        outSlope: 3.691478
        tangentMode: 0
      - serializedVersion: 2
        time: 0.108333334
        value: -0.7771459
        inSlope: 3.952332
        outSlope: 3.952332
        tangentMode: 0
      - serializedVersion: 2
        time: 0.11666667
        value: -0.7431448
        inSlope: 4.2023497
        outSlope: 4.2023497
        tangentMode: 0
      - serializedVersion: 2
        time: 0.125
        value: -0.70710677
        inSlope: 4.440853
        outSlope: 4.440853
        tangentMode: 0
      - serializedVersion: 2
        time: 0.13333334
        value: -0.66913056
        inSlope: 4.667183
        outSlope: 4.667183
        tangentMode: 0
      - serializedVersion: 2
        time: 0.14166668
        value: -0.6293203
        inSlope: 4.880722
        outSlope: 4.880722
        tangentMode: 0
      - serializedVersion: 2
        time: 0.15000002
        value: -0.5877851
        inSlope: 5.080883
        outSlope: 5.080883
        tangentMode: 0
      - serializedVersion: 2
        time: 0.15833336
        value: -0.5446389
        inSlope: 5.2671103
        outSlope: 5.2671103
        tangentMode: 0
      - serializedVersion: 2
        time: 0.1666667
        value: -0.49999988
        inSlope: 5.4389095
        outSlope: 5.4389095
        tangentMode: 0
      - serializedVersion: 2
        time: 0.17500004
        value: -0.4539903
        inSlope: 5.595804
        outSlope: 5.595804
        tangentMode: 0
      - serializedVersion: 2
        time: 0.18333338
        value: -0.4067364
        inSlope: 5.7373548
        outSlope: 5.7373548
        tangentMode: 0
      - serializedVersion: 2
        time: 0.19166672
        value: -0.35836765
        inSlope: 5.8631825
        outSlope: 5.8631825
        tangentMode: 0
      - serializedVersion: 2
        time: 0.20000006
        value: -0.30901662
        inSlope: 5.972931
        outSlope: 5.972931
        tangentMode: 0
      - serializedVersion: 2
        time: 0.2083334
        value: -0.25881872
        inSlope: 6.0663204
        outSlope: 6.0663204
        tangentMode: 0
      - serializedVersion: 2
        time: 0.21666674
        value: -0.2079112
        inSlope: 6.143084
        outSlope: 6.143084
        tangentMode: 0
      - serializedVersion: 2
        time: 0.22500008
        value: -0.1564339
        inSlope: 6.2029896
        outSlope: 6.2029896
        tangentMode: 0
      - serializedVersion: 2
        time: 0.23333342
        value: -0.10452795
        inSlope: 6.245913
        outSlope: 6.245913
        tangentMode: 0
      - serializedVersion: 2
        time: 0.24166676
        value: -0.05233526
        inSlope: 6.2717085
        outSlope: 6.2717085
        tangentMode: 0
      - serializedVersion: 2
        time: 0.2500001
        value: 0.00000052054855
        inSlope: 6.280307
        outSlope: 6.280307
        tangentMode: 0
      - serializedVersion: 2
        time: 0.2583334
        value: 0.052336417
        inSlope: 6.2717066
        outSlope: 6.2717066
        tangentMode: 0
      - serializedVersion: 2
        time: 0.26666674
        value: 0.10452887
        inSlope: 6.245909
        outSlope: 6.245909
        tangentMode: 0
      - serializedVersion: 2
        time: 0.27500007
        value: 0.1564348
        inSlope: 6.202999
        outSlope: 6.202999
        tangentMode: 0
      - serializedVersion: 2
        time: 0.2833334
        value: 0.20791209
        inSlope: 6.143073
        outSlope: 6.143073
        tangentMode: 0
      - serializedVersion: 2
        time: 0.29166672
        value: 0.25881925
        inSlope: 6.0663166
        outSlope: 6.0663166
        tangentMode: 0
      - serializedVersion: 2
        time: 0.30000004
        value: 0.30901727
        inSlope: 5.97294
        outSlope: 5.97294
        tangentMode: 0
      - serializedVersion: 2
        time: 0.30833337
        value: 0.35836816
        inSlope: 5.863177
        outSlope: 5.863177
        tangentMode: 0
      - serializedVersion: 2
        time: 0.3166667
        value: 0.4067368
        inSlope: 5.7373524
        outSlope: 5.7373524
        tangentMode: 0
      - serializedVersion: 2
        time: 0.32500002
        value: 0.4539906
        inSlope: 5.5958014
        outSlope: 5.5958014
        tangentMode: 0
      - serializedVersion: 2
        time: 0.33333334
        value: 0.50000006
        inSlope: 5.438912
        outSlope: 5.438912
        tangentMode: 0
      - serializedVersion: 2
        time: 0.34166667
        value: 0.54463905
        inSlope: 5.2671127
        outSlope: 5.2671127
        tangentMode: 0
      - serializedVersion: 2
        time: 0.35
        value: 0.5877852
        inSlope: 5.080881
        outSlope: 5.080881
        tangentMode: 0
      - serializedVersion: 2
        time: 0.35833332
        value: 0.6293203
        inSlope: 4.880724
        outSlope: 4.880724
        tangentMode: 0
      - serializedVersion: 2
        time: 0.36666664
        value: 0.6691305
        inSlope: 4.6671805
        outSlope: 4.6671805
        tangentMode: 0
      - serializedVersion: 2
        time: 0.37499997
        value: 0.7071066
        inSlope: 4.440852
        outSlope: 4.440852
        tangentMode: 0
      - serializedVersion: 2
        time: 0.3833333
        value: 0.74314463
        inSlope: 4.2023535
        outSlope: 4.2023535
        tangentMode: 0
      - serializedVersion: 2
        time: 0.39166662
        value: 0.77714574
        inSlope: 3.9523387
        outSlope: 3.9523387
        tangentMode: 0
      - serializedVersion: 2
        time: 0.39999995
        value: 0.8090169
        inSlope: 3.691485
        outSlope: 3.691485
        tangentMode: 0
      - serializedVersion: 2
        time: 0.40833327
        value: 0.83867043
        inSlope: 3.4204993
        outSlope: 3.4204993
        tangentMode: 0
      - serializedVersion: 2
        time: 0.4166666
        value: 0.86602515
        inSlope: 3.140151
        outSlope: 3.140151
        tangentMode: 0
      - serializedVersion: 2
        time: 0.42499992
        value: 0.89100623
        inSlope: 2.8512053
        outSlope: 2.8512053
        tangentMode: 0
      - serializedVersion: 2
        time: 0.43333325
        value: 0.9135452
        inSlope: 2.5544453
        outSlope: 2.5544453
        tangentMode: 0
      - serializedVersion: 2
        time: 0.44166657
        value: 0.9335803
        inSlope: 2.2506723
        outSlope: 2.2506723
        tangentMode: 0
      - serializedVersion: 2
        time: 0.4499999
        value: 0.95105636
        inSlope: 1.9407231
        outSlope: 1.9407231
        tangentMode: 0
      - serializedVersion: 2
        time: 0.45833322
        value: 0.96592563
        inSlope: 1.6254667
        outSlope: 1.6254667
        tangentMode: 0
      - serializedVersion: 2
        time: 0.46666655
        value: 0.97814745
        inSlope: 1.3057542
        outSlope: 1.3057542
        tangentMode: 0
      - serializedVersion: 2
        time: 0.47499987
        value: 0.9876882
        inSlope: 0.9824619
        outSlope: 0.9824619
        tangentMode: 0
      - serializedVersion: 2
        time: 0.4833332
        value: 0.9945218
        inSlope: 0.6564802
        outSlope: 0.6564802
        tangentMode: 0
      - serializedVersion: 2
        time: 0.49166653
        value: 0.9986295
        inSlope: 0.32869104
        outSlope: 0.32869104
        tangentMode: 0
      - serializedVersion: 2
        time: 0.5
        value: 1
        inSlope: 0.16445597
        outSlope: 0.16445597
        tangentMode: 0
      m_PreInfinity: 2
      m_PostInfinity: 2
      m_RotationOrder: 4
    attribute: m_LocalRotation.w
    path: 
    classID: 224
    script: {fileID: 0}
  m_EulerEditorCurves:
  - curve:
      serializedVersion: 2
      m_Curve:
      - serializedVersion: 2
        time: 0
        value: 0
        inSlope: 0
        outSlope: 0
        tangentMode: 69
      - serializedVersion: 2
        time: 0.5
        value: 0
        inSlope: -0
        outSlope: 0
        tangentMode: 69
      m_PreInfinity: 2
      m_PostInfinity: 2
      m_RotationOrder: 4
    attribute: localEulerAnglesBaked.x
    path: 
    classID: 224
    script: {fileID: 0}
  - curve:
      serializedVersion: 2
      m_Curve:
      - serializedVersion: 2
        time: 0
        value: 0
        inSlope: 0
        outSlope: 0
        tangentMode: 69
      - serializedVersion: 2
        time: 0.5
        value: 0
        inSlope: -0
        outSlope: 0
        tangentMode: 69
      m_PreInfinity: 2
      m_PostInfinity: 2
      m_RotationOrder: 4
    attribute: localEulerAnglesBaked.y
    path: 
    classID: 224
    script: {fileID: 0}
  - curve:
      serializedVersion: 2
      m_Curve:
      - serializedVersion: 2
        time: 0
        value: 0
        inSlope: 0
        outSlope: 720
        tangentMode: 69
      - serializedVersion: 2
        time: 0.5
        value: 360
        inSlope: 720
        outSlope: 0
        tangentMode: 69
      m_PreInfinity: 2
      m_PostInfinity: 2
      m_RotationOrder: 4
    attribute: localEulerAnglesBaked.z
    path: 
    classID: 224
    script: {fileID: 0}
  m_HasGenericRootTransform: 0
  m_HasMotionFloatCurves: 0
  m_GenerateMotionCurves: 0
  m_Events: []
